{
  "version": 1,
  "notes": "",
  "documentation": "\"This file is a QMK Configurator export. You can import this at <https://config.qmk.fm>. It can also be used directly with QMK's source code.\n\nTo setup your QMK environment check out the tutorial: <https://docs.qmk.fm/#/newbs>\n\nYou can convert this file to a keymap.c using this command: `qmk json2c {keymap}`\n\nYou can compile this keymap using this command: `qmk compile {keymap}`\"\n",
  "keyboard": "splitkb/aurora/corne/rev1",
  "keymap": "splitkb_aurora_corne_rev1_layout_split_3x6_3_mine",
  "layout": "LAYOUT_split_3x6_3",
  "layers": [
    [
      "KC_TAB",
      "KC_Q",
      "KC_W",
      "KC_E",
      "KC_R",
      "KC_T",
      "KC_Y",
      "KC_U",
      "KC_I",
      "KC_O",
      "KC_P",
      "KC_BSPC",
      "KC_LSFT",
      "KC_A",
      "KC_S",
      "KC_D",
      "KC_F",
      "KC_G",
      "KC_H",
      "KC_J",
      "KC_K",
      "KC_L",
      "KC_SCLN",
      "KC_RSFT",
      "KC_LCTL",
      "KC_Z",
      "KC_X",
      "KC_C",
      "KC_V",
      "KC_B",
      "KC_N",
      "KC_M",
      "KC_COMM",
      "KC_DOT",
      "KC_SLSH",
      "KC_RCTL",
      "KC_LALT",
      "MO(1)",
      "KC_SPC",
      "KC_ENT",
      "MO(2)",
      "KC_RALT"
    ],
    [
      "KC_TAB",
      "KC_NO",
      "KC_NO",
      "KC_NO",
      "KC_NO",
      "KC_NO",
      "KC_NO",
      "KC_NO",
      "KC_NO",
      "KC_NO",
      "KC_NO",
      "KC_BSPC",
      "KC_LSFT",
      "KC_NO",
      "KC_NO",
      "KC_NO",
      "KC_NO",
      "KC_NO",
      "KC_LEFT",
      "KC_DOWN",
      "KC_UP",
      "KC_RGHT",
      "KC_NO",
      "KC_RSFT",
      "KC_LCTL",
      "KC_NO",
      "KC_NO",
      "KC_NO",
      "KC_NO",
      "KC_NO",
      "KC_NO",
      "KC_NO",
      "KC_NO",
      "KC_NO",
      "KC_NO",
      "KC_RCTL",
      "KC_LALT",
      "KC_TRNS",
      "KC_SPC",
      "KC_ENT",
      "MO(3)",
      "KC_RALT"
    ],
    [
      "KC_ESC",
      "KC_TRNS",
      "KC_2",
      "KC_TRNS",
      "KC_4",
      "KC_TRNS",
      "KC_7",
      "KC_8",
      "KC_MINS",
      "KC_EQL",
      "KC_LBRC",
      "KC_RBRC",
      "KC_LSFT",
      "KC_NO",
      "KC_NO",
      "KC_NO",
      "KC_NO",
      "KC_NO",
      "KC_NO",
      "KC_NO",
      "KC_NO",
      "KC_NO",
      "KC_LBRC",
      "KC_NUHS",
      "KC_LCTL",
      "KC_NUBS",
      "KC_Z",
      "KC_X",
      "KC_C",
      "KC_V",
      "KC_N",
      "KC_M",
      "KC_COMM",
      "KC_DOT",
      "KC_NO",
      "KC_RSFT",
      "KC_LALT",
      "MO(3)",
      "KC_SPC",
      "KC_ENT",
      "KC_TRNS",
      "KC_RALT"
    ],
    [
      "KC_F1",
      "KC_F2",
      "KC_F3",
      "KC_F4",
      "KC_F5",
      "KC_F6",
      "KC_F6",
      "KC_F7",
      "KC_F8",
      "KC_F9",
      "KC_F10",
      "KC_F11",
      "KC_NO",
      "KC_NO",
      "KC_NO",
      "KC_NO",
      "KC_NO",
      "KC_NO",
      "KC_WH_U",
      "KC_PGDN",
      "KC_PGUP",
      "KC_NO",
      "KC_PSCR",
      "KC_HOME",
      "KC_NO",
      "KC_NO",
      "KC_NO",
      "KC_NO",
      "KC_NO",
      "KC_NO",
      "KC_WH_D",
      "KC_NO",
      "KC_NO",
      "KC_NO",
      "KC_NO",
      "KC_END",
      "KC_NO",
      "KC_TRNS",
      "KC_SPC",
      "KC_ENT",
      "KC_TRNS",
      "KC_RALT"
    ]
  ],
  "author": ""
}